[
	{
		"name": "minife",
		"cpu": 3.0,
		"ram": 4096,
		"watts": 77.13,
		"class_to_watts": {
			"A": 98.27,
			"B": 74.28,
			"C": 72.57,
			"D": 79.97 
		},
		"image": "rdelvalle/minife:electron1",
		"cmd": "cd src && mpirun -np 3 miniFE.x -nx 100 -ny 100 -nz 100",
		"inst": 20,
		"tolerance": 0.02
	},
	{
		"name": "stream",
		"cpu": 2.0,
		"ram": 4096,
		"watts": 49.28,
		"class_to_watts": {
			"A": 68.03,
			"B": 45.25,
			"C": 42.97,
			"D": 53.31
		},
		"image": "rdelvalle/stream:electron1",
		"cmd": "/./an9-stream",
		"inst": 10,
		"tolerance": 0.0
	},
	{
		"name": "jython",
		"cpu": 4.0,
		"ram": 5120,
		"watts": 61.31,
		"class_to_watts": {
			"A": 78.42,
			"B": 58.87,
			"C": 56.42,
			"D": 63.74
		},
		"image": "rdelvalle/dacapo:jython",
		"cmd": "java -jar /dacapo-9.12-bach.jar jython -s large",
		"inst": 20,
		"tolerance": 0.09
	},
	{
		"name": "h2",
		"cpu": 2.0,
		"ram": 3072,
		"watts": 50.9,
		"class_to_watts": {
			"A": 67.33,
			"B": 47.63,
			"C": 45.66,
			"D": 54.17
		},
		"image": "rdelvalle/dacapo:h2",
		"cmd": "java -jar /dacapo-9.12-bach.jar h2 -s large",
		"inst": 10,
		"tolerance": 0.12
	},
	{
		"name": "batik",
		"cpu": 2.0,
		"ram": 384,
		"watts": 44.04,
		"class_to_watts": {
			"A": 61.27,
			"B": 40.46,
			"C": 38.96,
			"D": 47.63
		},
		"image": "rdelvalle/dacapo:batik",
		"cmd": "java -jar /dacapo-9.12-bach.jar batik -s large",
		"inst": 30,
		"tolerance": 0.01
	},
	{
		"name": "video-encoding",
		"cpu": 6.0,
		"ram": 1024,
		"watts": 124.7,
		"class_to_watts": {
			"A": 132.67,
			"B": 127.53,
			"C": 121.87,
			"D": 114.43
		},
		"image": "pkaushi1/phoronix:video-encoding",
		"cmd": "phoronix-test-suite user-config-set SaveResults=FALSE && phoronix-test-suite batch-run pts/video-encoding",
		"inst": 1,
		"tolerance": 0.47
	},
	{
		"name": "avrora",
		"cpu": 3.0,
		"ram": 2048,
		"watts": 59.07,
		"class_to_watts": {
			"A": 74.65,
			"B": 56.73,
			"C": 51.12,
			"D": 61.41
		},
		"image": "rdelvalle/dacapo:avrora",
		"cmd": "java -jar /dacapo-9.12-bach.jar avrora -s large",
		"inst": 1,
		"tolerance": 0.21
	},
	{
		"name": "eclipse",
		"cpu": 3.0,
		"ram": 5120,
		"watts": 61.7,
		"class_to_watts": {
			"A": 79.29,
			"B": 59.19,
			"C": 56.92,
			"D": 64.21
		},
		"image": "rdelvalle/dacapo:eclipse",
		"cmd": "java -jar /dacapo-9.12-bach.jar eclipse -s large",
		"inst": 1,
		"tolerance": 0.10
	},
	{
		"name": "cryptography",
		"cpu": 6.0,
		"ram": 256,
		"watts": 144.45,
		"class_to_watts": {
			"A": 179.03,
			"B": 147.74,
			"C": 141.17,
			"D": 114.42
		},
		"image": "pkaushi1/phoronix:cryptography",
		"cmd": "phoronix-test-suite user-config-set SaveResults=FALSE && phoronix-test-suite batch-run pts/cryptography",
		"inst": 1,
		"tolerance": 0.74
	},
	{
		"name": "fop",
		"cpu": 3.0,
		"ram": 4096,
		"watts": 54.1,
		"class_to_watts": {
			"A": 72.4,
			"B": 52.19,
			"C": 44.84,
			"D": 56.02
		},
		"image": "ajain13/dacapo:fop",
		"cmd": "java -jar dacapo-9.12-bach.jar fop -s default",
		"inst": 1,
		"tolerance": 0.10
	},
	{
		"name": "luindex",
		"cpu": 3.0,
		"ram": 4096,
		"watts": 41.78,
		"class_to_watts": {
			"A": 57.59,
			"B": 39.03,
			"C": 35.87,
			"D": 44.53
		},
		"image": "ajain13/dacapo:luindex",
		"cmd": "java -jar dacapo-9.12-bach.jar luindex -s default",
		"inst": 1,
		"tolerance": 0.02
	},
	{
		"name": "lusearch",
		"cpu": 3.0,
		"ram": 4096,
		"watts": 99.46,
		"class_to_watts": {
			"A": 131.78,
			"B": 100.87,
			"C": 98.06,
			"D": 93.35
		},
		"image": "ajain13/dacapo:lusearch",
		"cmd": "java -jar dacapo-9.12-bach.jar lusearch -s large",
		"inst": 1,
		"tolerance": 0.59
	},
	{
		"name": "pmd",
		"cpu": 2.0,
		"ram": 1024,
		"watts": 77.73,
		"class_to_watts": {
			"A": 101.35,
			"B": 75.87,
			"C": 78.77,
			"D": 76.67
		},
		"image": "rdelvalle/dacapo:pmd",
		"cmd": "java -jar /dacapo-9.12-bach.jar pmd -s large",
		"inst": 1,
		"tolerance": 0.48
	},
	{
		"name": "sunflow",
		"cpu": 4.0,
		"ram": 3072,
		"watts": 132.97,
		"class_to_watts": {
			"A": 155.72,
			"B": 138.35,
			"C": 127.58,
			"D": 109.99
		},
		"image": "rdelvalle/dacapo:sunflow",
		"cmd": "java -jar /dacapo-9.12-bach.jar sunflow -s large",
		"inst": 1,
		"tolerance": 0.69
	},
	{
		"name": "tomcat",
		"cpu": 3.0,
		"ram": 4096,
		"watts": 98.69,
		"class_to_watts": {
			"A": 129.71,
			"B": 100.14,
			"C": 97.24,
			"D": 87.22
		},
		"image": "ajain13/dacapo:tomcat",
		"cmd": "java -jar dacapo-9.12-bach.jar tomcat -s large",
		"inst": 1,
		"tolerance": 0.59
	},
	{
		"name": "tradebeans",
		"cpu": 2.0,
		"ram": 3072,
		"watts": 51.12,
		"class_to_watts": {
			"A": 68.23,
			"B": 46.52,
			"C": 48.13,
			"D": 54.12
		},
		"image": "rdelvalle/dacapo:tradebeans",
		"cmd": "java -jar /dacapo-9.12-bach.jar tradebeans -s large",
		"inst": 1,
		"tolerance": 0.14
	},
	{
		"name": "xalan",
		"cpu": 2.0,
		"ram": 3072,
		"watts": 127.7,
		"class_to_watts": {
			"A": 155.0,
			"B": 131.31,
			"C": 124.09,
			"D": 108.35
		},
		"image": "rdelvalle/dacapo:xalan",
		"cmd": "java -jar /dacapo-9.12-bach.jar xalan -s large",
		"inst": 1,
		"tolerance": 0.68
	},
	{
		"name": "dgemm",
		"cpu": 5.0,
		"ram": 32,
		"watts": 101.21,
		"class_to_watts": {
			"A": 134.2,
			"B": 102.98,
			"C": 99.44,
			"D": 87.53
		},
		"image": "rdelvalle/dgemm:electron1",
		"cmd": "/./mt-dgemm 1024",
		"inst": 1,
		"tolerance": 0.61
	},
	{
		"name": "audio-encoding",
		"cpu": 2.0,
		"ram": 128,
		"watts": 42.82,
		"class_to_watts": {
			"A": 58.21,
			"B": 37.14,
			"C": 36.37,
			"D": 48.51
		},
		"image": "pkaushi1/phoronix:audio-encoding",
		"cmd": "phoronix-test-suite user-config-set SaveResults=FALSE && phoronix-test-suite batch-run pts/audio-encoding",
		"inst": 1,
		"tolerance": 0.0
	},
	{
		"name": "network-loopback",
		"cpu": 2.0,
		"ram": 32,
		"watts": 14.67,
		"class_to_watts": {
			"A": 20.0,
			"B": 12.09,
			"C": 11.49,
			"D": 17.25
		},
		"image": "pkaushi1/phoronix:network-loopback",
		"cmd": "phoronix-test-suite user-config-set SaveResults=FALSE && phoronix-test-suite batch-run pts/network-loopback",
		"inst": 1,
		"tolerance": 0.0
	}
]
